\contentsline {section}{\numberline {1}Cel Projektu}{2}
\contentsline {section}{\numberline {2}Problematyka}{2}
\contentsline {section}{\numberline {3}Technologia}{2}
\contentsline {subsection}{\numberline {3.1}Algorytmy}{2}
\contentsline {subsection}{\numberline {3.2}Przegl\IeC {\k a}d zupe\IeC {\l }ny}{2}
\contentsline {subsubsection}{\numberline {3.2.1}Teoria}{2}
\contentsline {subsubsection}{\numberline {3.2.2}Implementacja}{2}
\contentsline {subsection}{\numberline {3.3}Branch and bound}{3}
\contentsline {subsubsection}{\numberline {3.3.1}Teoria}{3}
\contentsline {section}{\numberline {4}Pomiary}{4}
\contentsline {section}{\numberline {5}Wnioski}{5}
\contentsline {section}{\numberline {6}Materia\IeC {\l }y}{6}
