\relax 
\@writefile{toc}{\contentsline {section}{\numberline {1}Cel Projektu}{2}}
\@writefile{toc}{\contentsline {section}{\numberline {2}Problematyka}{2}}
\@writefile{toc}{\contentsline {section}{\numberline {3}Technologia}{2}}
\@writefile{toc}{\contentsline {subsection}{\numberline {3.1}Algorytmy}{2}}
\@writefile{toc}{\contentsline {subsection}{\numberline {3.2}Przegl\IeC {\k a}d zupe\IeC {\l }ny}{2}}
\@writefile{toc}{\contentsline {subsubsection}{\numberline {3.2.1}Teoria}{2}}
\@writefile{toc}{\contentsline {subsubsection}{\numberline {3.2.2}Implementacja}{2}}
\@writefile{toc}{\contentsline {subsection}{\numberline {3.3}Branch and bound}{3}}
\@writefile{toc}{\contentsline {subsubsection}{\numberline {3.3.1}Teoria}{3}}
\@writefile{lol}{\contentsline {lstlisting}{\numberline {1}Klasa pomocnicza do zapami\IeC {\k e}tywania w\IeC {\l }a\IeC {\'s}ciwo\IeC {\'s}ci konkretnych wierzcho\IeC {\l }k\IeC {\'o}w}{3}}
\@writefile{toc}{\contentsline {section}{\numberline {4}Pomiary}{4}}
\@writefile{lof}{\contentsline {figure}{\numberline {1}{\ignorespaces Wykres czas\IeC {\'o}w pomiar\IeC {\'o}w dla algorytmu Brute Force\relax }}{4}}
\providecommand*\caption@xref[2]{\@setref\relax\@undefined{#1}}
\newlabel{fig:obraz}{{1}{4}}
\@writefile{lot}{\contentsline {table}{\numberline {1}{\ignorespaces Wyniki czas\IeC {\'o}w pomiar\IeC {\'o}w dla algorytmu Brute Force\relax }}{4}}
\@writefile{lof}{\contentsline {figure}{\numberline {2}{\ignorespaces Wykres czas\IeC {\'o}w pomiar\IeC {\'o}w dla algorytmu Branch and Bound\relax }}{5}}
\newlabel{fig:obraz}{{2}{5}}
\@writefile{lot}{\contentsline {table}{\numberline {2}{\ignorespaces Wyniki czas\IeC {\'o}w pomiar\IeC {\'o}w dla algorytmu Branch and Bound cz. I \relax }}{5}}
\@writefile{lot}{\contentsline {table}{\numberline {3}{\ignorespaces Wyniki czas\IeC {\'o}w pomiar\IeC {\'o}w dla algorytmu Branch and Bound cz. II \relax }}{5}}
\@writefile{toc}{\contentsline {section}{\numberline {5}Wnioski}{5}}
\@writefile{lof}{\contentsline {figure}{\numberline {3}{\ignorespaces Wykres por\IeC {\'o}wnania czas\IeC {\'o}w pomiar\IeC {\'o}w dla algorytmu Branch and Bound oraz dla przegl\IeC {\k a}du zupe\IeC {\l }nego\relax }}{6}}
\newlabel{fig:obraz}{{3}{6}}
\newlabel{odnosnik}{{4a}{6}}
\newlabel{sub@odnosnik}{{(a)}{a}}
\newlabel{odnosnik}{{4b}{6}}
\newlabel{sub@odnosnik}{{(b)}{b}}
\@writefile{lof}{\contentsline {figure}{\numberline {4}{\ignorespaces Zu\IeC {\.z}ycie pami\IeC {\k e}ci i procesora przez oba algorytmy.\relax }}{6}}
\newlabel{fig:animals}{{4}{6}}
\@writefile{lof}{\contentsline {subfigure}{\numberline{(a)}{\ignorespaces {Branch and Bound}}}{6}}
\@writefile{lof}{\contentsline {subfigure}{\numberline{(b)}{\ignorespaces {Brute Force}}}{6}}
\@writefile{toc}{\contentsline {section}{\numberline {6}Materia\IeC {\l }y}{6}}
